{
    "youtube": [
        "olXYZOsXw_o",
        "Fp9pNPdNwjI",
        "2XOFLRPnFC0",
        "rMeXquwrB0Y",
        "MPiILYNStd8",
        "_wlTjsp8_eI",
        "PHNT5PjFWBM",
        "KC5UCQYY6-U",
        "q4dANhP7BVg",
        "XeFVGhZ2lo4",
        "1mDklvkHeN8",
        "EAg69LaLlS0",
        "ayXxwJJId_c",
        "LkTMBXoB-tM",
        "9wvzFOcwI40",
        "cii6ruuycQA",
        "6eKE9pf01FY",
        "0XeYtTS4zJ8",
        "k2ud5yUTbsI",
        "xZOp1-aE-8s",
        "FlwZHfjk4fA",
        "TNn_sJZBzlE",
        "vP1pH74heHU",
        "Q8d3hzB9iSQ",
        "Y2Y5KVtU810",
        "Ie8kVnG30vQ",
        "ML-iBsCUDg8",
        "H0reLvoauvg",
        "elYCV2yv3oU",
        "H6TYPZ734Jw",
        "pBdKnPcNyl8",
        "W0XarI3dFu0",
        "iOr-dFR2f1c",
        "9RE0nUiY32Q",
        "zFT3f9biz68",
        "uSm2VDgRIUs",
        "mV30rcc30o4",
        "2XP6ciRmHg8",
        "h-t5zj5F3Ic",
        "YUcLPuFk9FM",
        "uoDJa-kJutU",
        "sWjsLcmQzVI",
        "YI7aBJVtUuE",
        "CaYU9fpG_nM",
        "11cyWOXg3rA",
        "nRnwDuN2y_c",
        "x6LBEoIF1mk",
        "lSiDR70ke-g",
        "cxnck3wPxUI",
        "vBumm7mYT_0"
    ],
    "vimeo": [
        "530751889",
        "530566148",
        "530070184",
        "530314803",
        "531814804",
        "531648264",
        "524552429",
        "530285426",
        "532024091",
        "531145622",
        "531015803",
        "528884659",
        "505859118",
        "521722165",
        "522107885",
        "530415704",
        "530967047",
        "528800119",
        "530758640",
        "530225498",
        "531153525",
        "530203240",
        "529254176",
        "527942089",
        "528316354",
        "448958811",
        "527856349",
        "530708186",
        "530629597",
        "315581984",
        "530384300",
        "530332884",
        "528233449",
        "527090034",
        "483817264",
        "530591321",
        "524159197",
        "529330882",
        "530298833",
        "378373181",
        "529403539",
        "470176646",
        "530360101",
        "517162576",
        "529688511",
        "528311123",
        "522712734",
        "513609405",
        "528801778",
        "528767105"
    ]
}
